GISCO APIs with giscoR • giscoR
…
GISCO Address API

The GISCO Address API supports address search, reverse geocoding and lookup of available administrative address components. It can be useful when a workflow starts with a human-readable address rather than a GISCO feature ID.

Use the lookup helpers to inspect available address components:

gisco_address_api_countries()
#> # A tibble: 31 × 1
#>    L0   
#>    <chr>
#>  1 AT   
#>  2 BE   
#>  3 BG   
#>  4 CH   
#>  5 CY   
#>  6 CZ   
#>  7 DE   
#>  8 DK   
#>  9 EE   
#> 10 EL   
#> # ℹ 21 more rows
…
#>    <chr>           
#>  1 CAPELLEN        
#>  2 CLERVAUX        
#>  3 DIEKIRCH        
#>  4 ECHTERNACH      
#>  5 ESCH-SUR-ALZETTE
#>  6 GREVENMACHER    
#>  7 LUXEMBOURG      
#>  8 MERSCH          
#>  9 REDANGE         
#> 10 REMICH          
#> 11 VIANDEN         
#> 12 WILTZ
gisco_address_api_cities(country = "LU")
#> # A tibble: 542 × 1
#>    L2        
#>    <chr>     
#>  1 ABWEILER  
#>  2 AHN       
#>  3 ALLERBORN 
#>  4 ALSCHEID  
#>  5 ALTLINSTER
#>  6 ALTRIER   
#>  7 ALTWIES   
#>  8 ALZINGEN  
#>  9 ANGELSBERG
#> 10 ANSEMBOURG
#> # ℹ 532 more rows
…
