…
## See also

[`gisco_get_metadata()`](https://ropengov.github.io/giscoR/reference/gisco_get_metadata.md),
[`?gisco_get_unit`](https://ropengov.github.io/giscoR/reference/gisco_get_unit.md)
functions.

## Examples

``` r
# \donttest{
# mode df
gisco_get_units("nuts", mode = "df", year = 2016)
#> Warning: `gisco_get_units()` was deprecated in giscoR 1.0.0.
#> ℹ Please use `gisco_get_metadata()` instead.
#> # A tibble: 2,016 × 9
#>    CNTR_CODE NUTS_ID NAME_LATN          NUTS_NAME NAME_ASCI NAME_HTML MOUNT_TYPE
#>    <chr>     <chr>   <chr>              <chr>     <chr>     <chr>          <int>
#>  1 UK        UKL2    East Wales         East Wal… East Wal… East Wal…          0
#>  2 UK        UKL18   Swansea            Swansea   Swansea   Swansea            4
#>  3 UK        UKL17   Bridgend and Neat… Bridgend… Bridgend… Bridgend…          2
#>  4 UK        UKL16   Gwent Valleys      Gwent Va… Gwent Va… Gwent Va…          2
#>  5 UK        UKL15   Central Valleys    Central … Central … Central …          3
#>  6 UK        UKL14   South West Wales   South We… South We… South We…          4
#>  7 UK        UKL12   Gwynedd            Gwynedd   Gwynedd   Gwynedd            2
#>  8 UK        UKL11   Isle of Anglesey   Isle of … Isle of … Isle of …          4
#>  9 UK        UKL1    West Wales and Th… West Wal… West Wal… West Wal…          0
#> 10 UK        UKL     WALES              WALES     WALES     WALES              0
#> # ℹ 2,006 more rows
#> # ℹ 2 more variables: URBN_TYPE <int>, COAST_TYPE <int>
# ->
gisco_get_metadata("nuts", year = 2016)
#> # A tibble: 2,016 × 9
#>    CNTR_CODE NUTS_ID NAME_LATN          NUTS_NAME NAME_ASCI NAME_HTML MOUNT_TYPE
#>    <chr>     <chr>   <chr>              <chr>     <chr>     <chr>          <int>
#>  1 UK        UKL2    East Wales         East Wal… East Wal… East Wal…          0
#>  2 UK        UKL18   Swansea            Swansea   Swansea   Swansea            4
#>  3 UK        UKL17   Bridgend and Neat… Bridgend… Bridgend… Bridgend…          2
#>  4 UK        UKL16   Gwent Valleys      Gwent Va… Gwent Va… Gwent Va…          2
#>  5 UK        UKL15   Central Valleys    Central … Central … Central …          3
#>  6 UK        UKL14   South West Wales   South We… South We… South We…          4
#>  7 UK        UKL12   Gwynedd            Gwynedd   Gwynedd   Gwynedd            2
#>  8 UK        UKL11   Isle of Anglesey   Isle of … Isle of … Isle of …          4
#>  9 UK        UKL1    West Wales and Th… West Wal… West Wal… West Wal…          0
#> 10 UK        UKL     WALES              WALES     WALES     WALES              0
#> # ℹ 2,006 more rows
#> # ℹ 2 more variables: URBN_TYPE <int>, COAST_TYPE <int>
…
