…
# Get list of codes from countrycodes
library(dplyr)
#> 
#> Attaching package: 'dplyr'
#> The following objects are masked from 'package:stats':
#> 
#>     filter, lag
#> The following objects are masked from 'package:base':
#> 
#>     intersect, setdiff, setequal, union

countrycode::codelist %>%
  select(country.name.en, iso2c)
#> # A tibble: 291 × 2
#>    country.name.en   iso2c
#>    <chr>             <chr>
#>  1 Afghanistan       AF   
#>  2 Albania           AL   
#>  3 Algeria           DZ   
#>  4 American Samoa    AS   
#>  5 Andorra           AD   
#>  6 Angola            AO   
#>  7 Anguilla          AI   
#>  8 Antarctica        AQ   
#>  9 Antigua & Barbuda AG   
#> 10 Argentina         AR   
#> # ℹ 281 more rows
```
