GISCO Address API — gisco_addressapi • giscoR
…
# Cities in a region

gisco_addressapi_cities(country = "PT", province = "LISBOA") %>%
  as_tibble()
#> # A tibble: 133 × 1
#>    L2                   
#>    <chr>                
#>  1 AJUDA                
#>  2 ALCABIDECHE          
#>  3 ALCOENTRE            
#>  4 ALCÂNTARA            
#>  5 ALFRAGIDE            
#>  6 ALGUBER              
#>  7 ALGUEIRÃO-MEM MARTINS
#>  8 ALVALADE             
#>  9 AREEIRO              
#> 10 ARRANHÓ              
#> # ℹ 123 more rows
…
