…
Other basic services datasets:
[`gisco_get_healthcare()`](https://ropengov.github.io/giscoR/dev/reference/gisco_get_healthcare.md)

## Examples

``` r
# \donttest{
edu_BEL <- gisco_get_education(country = "Belgium")
edu_BEL
#> Simple feature collection with 11616 features and 24 fields (with 1 geometry empty)
#> Geometry type: GEOMETRY
#> Dimension:     XY
#> Bounding box:  xmin: 2.585864 ymin: 49.52634 xmax: 6.141682 ymax: 51.4919
#> Geodetic CRS:  WGS 84
#> # A tibble: 11,616 × 25
#>    id     name  site_name   lat   lon street house_number postcode address city 
#>  * <chr>  <chr> <chr>     <dbl> <dbl> <chr>  <chr>        <chr>    <chr>   <chr>
#>  1 BE_F0… Midd… NA         51.0  5.35 KEMPI… 400          3500     NA      HASS…
#>  2 BE_F0… Midd… NA         50.9  5.32 KLEIN… 7            3500     NA      HASS…
#>  3 BE_F0… Mosa… NA         51.1  5.74 KLOOS… 14           3640     NA      KINR…
#>  4 BE_F0… Onze… NA         51.0  3.14 MANDE… 170          8800     NA      ROES…
#>  5 BE_F0… Vrij… NA         50.9  3.12 BLEKE… 77           8800     NA      ROES…
#>  6 BE_F0… Heil… NA         51.0  3.20 WEZES… 2            8850     NA      ARDO…
#>  7 BE_F0… Insp… NA         51.0  5.37 LYCEU… 11           3530     NA      HOUT…
#>  8 BE_F0… Insp… NA         51.0  5.37 HEREB… 41           3530     NA      HOUT…
#>  9 BE_F0… Insp… NA         51.0  5.37 HEREB… 41           3530     NA      HOUT…
#> 10 BE_F0… Virg… NA         50.9  5.34 GUFFE… 27           3500     NA      HASS…
#> # ℹ 11,606 more rows
#> # ℹ 15 more variables: cntr_id <chr>, levels <chr>, max_students <chr>,
#> #   enrollment <chr>, fields <chr>, facility_type <chr>, public_private <chr>,
#> #   tel <chr>, email <chr>, url <chr>, ref_date <chr>, pub_date <chr>,
#> #   geo_qual <chr>, comments <chr>, geometry <POINT [°]>
…
