…
  cache_dir = tmp
)
# Read one
library(sf)
#> Linking to GEOS 3.13.1, GDAL 3.11.0, PROJ 9.6.0; sf_use_s2() is TRUE
f <- list.files(tmp, recursive = TRUE, full.names = TRUE)
f[1]
#> [1] "C:\\Users\\RUNNER~1\\AppData\\Local\\Temp\\RtmpSKurdM/testexample/countries/CNTR_BN_60M_2016_3035.geojson"
sf::read_sf(f[1])
#> Simple feature collection with 1339 features and 9 fields
#> Geometry type: MULTILINESTRING
#> Dimension:     XY
#> Bounding box:  xmin: -7032129 ymin: -9159740 xmax: 16931810 ymax: 15431090
#> Projected CRS: ETRS89-extended / LAEA Europe
#> # A tibble: 1,339 × 10
#>    EU_FLAG EFTA_FLAG CC_FLAG COAS_FLAG CNTR_BN_ID OTHR_FLAG POL_STAT
#>    <chr>   <chr>     <chr>   <chr>          <int> <chr>        <int>
#>  1 F       F         F       T                157 T                0
#>  2 F       F         F       T                158 T                0
#>  3 F       F         F       T                159 T                0
#>  4 F       F         F       T                160 T                0
#>  5 F       F         F       T                161 T                0
#>  6 F       F         F       T                162 T                0
#>  7 F       F         F       T                163 T                0
#>  8 F       F         F       T                164 T                0
#>  9 F       F         F       T                165 T                0
#> 10 F       F         F       T                166 T                0
#> # ℹ 1,329 more rows
#> # ℹ 3 more variables: CNTR_BN_CODE <int>, CNTR_CODE <chr>,
#> #   geometry <MULTILINESTRING [m]>
…
