…
# Geocode and reverse geocode with `sf` objects.
# Structured search
struct <- gisco_address_api_search(
  country = "ES", city = "BARCELONA",
  road = "GRACIA"
)

struct
#> Simple feature collection with 80 features and 13 fields
#> Geometry type: POINT
#> Dimension:     XY
#> Bounding box:  xmin: 2.145219 ymin: 41.39211 xmax: 2.16427 ymax: 41.39642
#> Geodetic CRS:  WGS 84
#> # A tibble: 80 × 14
#>    LD    TF    L2    L1    L0    PC    N0    N1    N2    N3    OL        X     Y
#>  * <chr> <chr> <chr> <chr> <chr> <chr> <chr> <chr> <chr> <chr> <chr> <dbl> <dbl>
#>  1 1     CL T… BARC… CATA… ES    8021  ES    ES5   ES51  ES511 8FH4…  2.15  41.4
#>  2 3     CL T… BARC… CATA… ES    8021  ES    ES5   ES51  ES511 8FH4…  2.15  41.4
#>  3 7     CL T… BARC… CATA… ES    8021  ES    ES5   ES51  ES511 8FH4…  2.15  41.4
#>  4 8     CL T… BARC… CATA… ES    8021  ES    ES5   ES51  ES511 8FH4…  2.15  41.4
#>  5 9     CL T… BARC… CATA… ES    8021  ES    ES5   ES51  ES511 8FH4…  2.15  41.4
#>  6 10    CL T… BARC… CATA… ES    8021  ES    ES5   ES51  ES511 8FH4…  2.15  41.4
#>  7 11    CL T… BARC… CATA… ES    8021  ES    ES5   ES51  ES511 8FH4…  2.15  41.4
#>  8 12    CL T… BARC… CATA… ES    8021  ES    ES5   ES51  ES511 8FH4…  2.15  41.4
#>  9 14    CL T… BARC… CATA… ES    8021  ES    ES5   ES51  ES511 8FH4…  2.15  41.4
#> 10 16    CL T… BARC… CATA… ES    8021  ES    ES5   ES51  ES511 8FH4…  2.15  41.4
#> # ℹ 70 more rows
#> # ℹ 1 more variable: geometry <POINT [°]>
…
